<?xml version="1.0" encoding="UTF-8"?>
<svg width="9px" height="7px" viewBox="0 0 9 7" version="1.1" xmlns="http://www.w3.org/2000/svg" xmlns:xlink="http://www.w3.org/1999/xlink">
    <!-- Generator: Sketch 53.1 (72631) - https://sketchapp.com -->
    <title>Downselector Copy 2</title>
    <desc>Created with Sketch.</desc>
    <g id="Symbols" stroke="none" stroke-width="1" fill="none" fill-rule="evenodd">
        <g id="InterfaceIcons/CurrencyDownArrow" fill="#4E4E4E" fill-rule="nonzero">
            <path d="M4.5,3.48140774 L7.24742331,0.341495392 C7.61110536,-0.0741412394 8.24286798,-0.116258747 8.65850461,0.247423305 C9.07414124,0.611105358 9.11625875,1.24286798 8.75257669,1.65850461 L4.5,6.51859226 L0.247423305,1.65850461 C-0.116258747,1.24286798 -0.0741412394,0.611105358 0.341495392,0.247423305 C0.757132024,-0.116258747 1.38889464,-0.0741412394 1.75257669,0.341495392 L4.5,3.48140774 Z" id="Downselector-Copy-2"></path>
        </g>
    </g>
</svg>
